{
  "announcement": {
    "text": "Try <a href=\"http://vuecidity.wemakesites.net/\" style=\"color: #fff;\" target=\"_blank\">Vuecidity</a> - the new desktop and mobile component library for VueJs or <a href=\"https://vueribbon.com/home\" style=\"color: #fff;\" target=\"_blank\">VueRibbon</a> built on top of VueJs and ES6 with amazing api and tons of great features.",
    "type": "success",
    "icon": "info",
    "dismissible": false
  }
}
